﻿{
    "//": "This file is for percentage-based adornment effects.",
    "//": "The 'key' is the keywords of the adornments effect.",
    "//": "The 'value' is the internal property used for that modifier.",
    "Multi Attack Chance": "doubleattackchance",
    "Crit Bonus of caster": "critbonus",
    "auto-attack affect multiple targets": "aeautoattackchance",
    "strikethrough": "strikethrough",
    "Attack Speed": "attackspeed",
    "Potency": "basemodifier",
    "mitigation to their worn armor": "armormitigationincrease",
    "resistibility": "resistibility",
    "Ability Casting Speed": "spelltimecastpct",
    "Max Health": "maxhpperc",
    "Ability Recovery Speed": "spelltimerecoverypct",
    "Ability Reuse Speed": "spelltimereusepct",
    "Max Power of caster": "maxmanapct",
    "chance to resist Fear": "fearresistpct",
    "chance to resist Mesmerize": "mesresistpct",
    "chance to resist Daze": "dazeresistpct",
    "chance to resist Stun": "stunresistpct",
    "chance to resist Root": "rootresistpct",
    "chance to resist Stifle": "stifleresistpct",
    "All Attributes": "allattributespct",
    "Crit Chance": "critchance",
    "Increases in-combat movement speed": "combatspeed",
    "Weapon Range": "weaponrange",
    "range and radius of spells": "spellrange",
    "heal or ward amount": "healpct",
    "auto-attack strike the target multiple times": "doubleattackchance",
    "all physical damage received": "damagepreventpct"
}
